{
  "current_page": 1,
  "data": [
    {
      "id": 8898,
      "descricao": "Antarctica Lat\u00e3o 473ml",
      "detalhes": "Antarctica Lat\u00e3o 473ml",
      "codigo_barras_1": "17432",
      "preco_varejo": "8.00",
      "preco_promocao": "2.00",
      "promocao_inicio": "2024-11-15",
      "promocao_fim": "2025-08-15",
      "estoque_atual": 50,
      "destaque": null,
      "somente_mesa": 1,
      "empresas_id": 111,
      "ordem": 12,
      "imagens": []
    },
    {
      "id": 7320,
      "descricao": "Fanta Laranja Lata 350ml",
      "detalhes": "Ingredientes: \u00c1gua Gaseificada, A\u00e7\u00facar, Sucos Concentrados De Laranja E Ma\u00e7\u00e3, Vitamina C, Reguladores De Acidez \u00c1cido C\u00edtrico E Citrato De S\u00f3dio, Aroma Sint\u00e9tico Id\u00eantico Ao Natural, Sequestrantes Hexametafosfato De S\u00f3dio E Edta C\u00e1lcio Diss\u00f3dico, Conservadores Benzoato De S\u00f3dio E Sorbato De Pot\u00e1ssio, Edulcorantes Sucralose (4,2mg) E Acesulfame De Pot\u00e1ssio (3,2mg) Por 100ml, Corante Artificial Amarelo Crep\u00fasculo Fcf.",
      "codigo_barras_1": "23",
      "preco_varejo": "7.00",
      "preco_promocao": "0.00",
      "promocao_inicio": "2023-10-27",
      "promocao_fim": "2025-09-19",
      "estoque_atual": 32,
      "destaque": null,
      "somente_mesa": null,
      "empresas_id": 111,
      "ordem": 9,
      "imagens": [
        {
          "id": 35540,
          "url": "\/uploads\/adm\/empresas\/111\/produtos\/7320_3751-600x600.jpg",
          "name": "7320_3751-600x600",
          "full_name": "600w",
          "extension": "jpg",
          "file_mimetype": "image\/jpg",
          "rel_table": "produtos",
          "rel_id": 7320,
          "created_at": "2024-03-30T21:28:08.000000Z",
          "updated_at": "2024-03-30T21:28:08.000000Z",
          "deleted_at": null
        }
      ]
    },
    {
      "id": 7982,
      "descricao": "Halls Menta",
      "detalhes": "Halls Menta",
      "codigo_barras_1": "8968",
      "preco_varejo": "3.00",
      "preco_promocao": "0.00",
      "promocao_inicio": null,
      "promocao_fim": null,
      "estoque_atual": 26,
      "destaque": null,
      "somente_mesa": null,
      "empresas_id": 111,
      "ordem": 8,
      "imagens": []
    },
    {
      "id": 7368,
      "descricao": "Abacaxi Com Morango",
      "detalhes": "Refrescante Suco Natural, feito com Morango e Abacaxi 300ml.",
      "codigo_barras_1": "38",
      "preco_varejo": "11.00",
      "preco_promocao": "0.00",
      "promocao_inicio": null,
      "promocao_fim": null,
      "estoque_atual": 17,
      "destaque": null,
      "somente_mesa": null,
      "empresas_id": 111,
      "ordem": 9,
      "imagens": []
    },
    {
      "id": 7340,
      "descricao": "Morango",
      "detalhes": "Refrescante Suco de Morango 300ml.",
      "codigo_barras_1": "38",
      "preco_varejo": "11.00",
      "preco_promocao": "0.00",
      "promocao_inicio": "2023-10-29",
      "promocao_fim": "2023-11-01",
      "estoque_atual": 13,
      "destaque": null,
      "somente_mesa": null,
      "empresas_id": 111,
      "ordem": 9,
      "imagens": []
    },
    {
      "id": 7348,
      "descricao": "Guaran\u00e1 Antarctica Lata 350ml",
      "detalhes": "Guaran\u00e1 Antarctica Lata 350ml.",
      "codigo_barras_1": "21",
      "preco_varejo": "7.00",
      "preco_promocao": "5.50",
      "promocao_inicio": "2025-01-01",
      "promocao_fim": "2025-12-01",
      "estoque_atual": 12,
      "destaque": null,
      "somente_mesa": null,
      "empresas_id": 111,
      "ordem": 9,
      "imagens": [
        {
          "id": 35536,
          "url": "\/uploads\/adm\/empresas\/111\/produtos\/7348_3057-600x600.jpg",
          "name": "7348_3057-600x600",
          "full_name": "600w",
          "extension": "jpg",
          "file_mimetype": "image\/jpg",
          "rel_table": "produtos",
          "rel_id": 7348,
          "created_at": "2024-03-30T21:22:35.000000Z",
          "updated_at": "2024-03-30T21:22:35.000000Z",
          "deleted_at": null
        }
      ]
    },
    {
      "id": 7321,
      "descricao": "Fanta Uva Lata 350ml",
      "detalhes": "Ingredientes: \u00c1gua Gaseificada, A\u00e7\u00facar, Sucos Concentrados De Uva E Lim\u00e3o, Aroma Sint\u00e9tico Id\u00eantico Ao Natural, Reguladores De Acidez \u00c1cido C\u00edtrico E Citrato De S\u00f3dio, Conservadores Benzoato De S\u00f3dio E Sorbato De Pot\u00e1ssio, Edulcorantes Acesulfame De Pot\u00e1ssio (3,5mg) E Sucralose (2,3mg) Por 100ml, Corantes Artificiais Amaranto, Azul Brilhante Fcf E Tartrazina.",
      "codigo_barras_1": "22",
      "preco_varejo": "7.00",
      "preco_promocao": "6.00",
      "promocao_inicio": "2023-10-27",
      "promocao_fim": "2023-11-03",
      "estoque_atual": 11,
      "destaque": null,
      "somente_mesa": null,
      "empresas_id": 111,
      "ordem": 9,
      "imagens": [
        {
          "id": 35542,
          "url": "\/uploads\/adm\/empresas\/111\/produtos\/7321_2972-600x600.jpg",
          "name": "7321_2972-600x600",
          "full_name": "600w",
          "extension": "jpg",
          "file_mimetype": "image\/jpg",
          "rel_table": "produtos",
          "rel_id": 7321,
          "created_at": "2024-03-30T21:30:55.000000Z",
          "updated_at": "2024-03-30T21:30:55.000000Z",
          "deleted_at": null
        }
      ]
    },
    {
      "id": 7474,
      "descricao": "Maracuj\u00e1 Com Morango",
      "detalhes": "Suco Maracuj\u00e1 Com Morango 300ml.",
      "codigo_barras_1": "37",
      "preco_varejo": "11.00",
      "preco_promocao": "0.00",
      "promocao_inicio": null,
      "promocao_fim": null,
      "estoque_atual": 10,
      "destaque": null,
      "somente_mesa": null,
      "empresas_id": 111,
      "ordem": 9,
      "imagens": []
    },
    {
      "id": 7520,
      "descricao": "Mentos Ice Mint Tubo",
      "detalhes": "Mentos Ice Mint Tubo.",
      "codigo_barras_1": "8864",
      "preco_varejo": "3.00",
      "preco_promocao": "0.00",
      "promocao_inicio": null,
      "promocao_fim": null,
      "estoque_atual": 6,
      "destaque": null,
      "somente_mesa": 1,
      "empresas_id": 111,
      "ordem": 8,
      "imagens": []
    },
    {
      "id": 7955,
      "descricao": "T\u00f4nica Antarctica Lata 350ml",
      "detalhes": "T\u00f4nica 350ML, Ingredientes: Agua Gaseificada. Ac Car. Extrato Vegetal Aromatico E Quininho. Aroma Natural.",
      "codigo_barras_1": "25",
      "preco_varejo": "7.00",
      "preco_promocao": "0.00",
      "promocao_inicio": null,
      "promocao_fim": null,
      "estoque_atual": 5,
      "destaque": null,
      "somente_mesa": null,
      "empresas_id": 111,
      "ordem": 9,
      "imagens": [
        {
          "id": 35550,
          "url": "\/uploads\/adm\/empresas\/111\/produtos\/7955_1673-600x600.jpg",
          "name": "7955_1673-600x600",
          "full_name": "600w",
          "extension": "jpg",
          "file_mimetype": "image\/jpg",
          "rel_table": "produtos",
          "rel_id": 7955,
          "created_at": "2024-03-30T21:53:09.000000Z",
          "updated_at": "2024-03-30T21:53:09.000000Z",
          "deleted_at": null
        }
      ]
    },
    {
      "id": 7523,
      "descricao": "Mentos Fruit Tubo",
      "detalhes": "Mentos Fruit Tubo.",
      "codigo_barras_1": "14711",
      "preco_varejo": "3.00",
      "preco_promocao": "0.00",
      "promocao_inicio": null,
      "promocao_fim": null,
      "estoque_atual": 5,
      "destaque": null,
      "somente_mesa": 1,
      "empresas_id": 111,
      "ordem": 8,
      "imagens": []
    },
    {
      "id": 7372,
      "descricao": "Abacaxi",
      "detalhes": "Suco Feito com a Fruta Natural De Abacaxi 300ml.",
      "codigo_barras_1": "29",
      "preco_varejo": "11.00",
      "preco_promocao": "0.00",
      "promocao_inicio": null,
      "promocao_fim": null,
      "estoque_atual": 5,
      "destaque": null,
      "somente_mesa": null,
      "empresas_id": 111,
      "ordem": 9,
      "imagens": []
    },
    {
      "id": 9062,
      "descricao": "Heineken 600ml",
      "detalhes": "Heineken 600ml",
      "codigo_barras_1": "17434",
      "preco_varejo": "18.00",
      "preco_promocao": "0.00",
      "promocao_inicio": "2024-02-24",
      "promocao_fim": "2024-02-25",
      "estoque_atual": 2,
      "destaque": null,
      "somente_mesa": 1,
      "empresas_id": 111,
      "ordem": 12,
      "imagens": []
    },
    {
      "id": 7326,
      "descricao": "Suco Kapo Morango 200ml",
      "detalhes": "Suco Kapo Morango 200ml",
      "codigo_barras_1": "168",
      "preco_varejo": "4.00",
      "preco_promocao": "0.00",
      "promocao_inicio": null,
      "promocao_fim": null,
      "estoque_atual": 0,
      "destaque": null,
      "somente_mesa": null,
      "empresas_id": 111,
      "ordem": 9,
      "imagens": []
    },
    {
      "id": 7469,
      "descricao": "COMBO Andr\u00f4meda",
      "detalhes": "P\u00e3o Rocket,4x Blend Angus 135g, 4x Bacon, 8x Queijo Cheddar Premium, Molho Rocket Burger E Cebola Roxa + Refrigerante Lata 350ml + Batata-Frita.",
      "codigo_barras_1": null,
      "preco_varejo": "69.00",
      "preco_promocao": "0.00",
      "promocao_inicio": "2023-12-22",
      "promocao_fim": "2025-12-22",
      "estoque_atual": -1,
      "destaque": null,
      "somente_mesa": 1,
      "empresas_id": 111,
      "ordem": 4,
      "imagens": [
        {
          "id": 36140,
          "url": "\/uploads\/adm\/empresas\/111\/produtos\/7469_7442-600x600.jpg",
          "name": "7469_7442-600x600",
          "full_name": "600w",
          "extension": "jpg",
          "file_mimetype": "image\/jpg",
          "rel_table": "produtos",
          "rel_id": 7469,
          "created_at": "2025-01-02T06:32:55.000000Z",
          "updated_at": "2025-01-02T06:32:55.000000Z",
          "deleted_at": null
        }
      ]
    },
    {
      "id": 7485,
      "descricao": "\u00c1gua Mineral Com G\u00e1s 350ml",
      "detalhes": "\u00c1gua Mineral Com G\u00e1s 350ml.",
      "codigo_barras_1": "28",
      "preco_varejo": "6.00",
      "preco_promocao": "0.00",
      "promocao_inicio": null,
      "promocao_fim": null,
      "estoque_atual": -1,
      "destaque": null,
      "somente_mesa": null,
      "empresas_id": 111,
      "ordem": 10,
      "imagens": [
        {
          "id": 35597,
          "url": "\/uploads\/adm\/empresas\/111\/produtos\/7485_82-600x600.jpg",
          "name": "7485_82-600x600",
          "full_name": "600w",
          "extension": "jpg",
          "file_mimetype": "image\/jpg",
          "rel_table": "produtos",
          "rel_id": 7485,
          "created_at": "2024-03-31T15:40:31.000000Z",
          "updated_at": "2024-03-31T15:40:31.000000Z",
          "deleted_at": null
        }
      ]
    },
    {
      "id": 9056,
      "descricao": "Fritas Rocket",
      "detalhes": "Fritas Rocket Com Cheddar e Bacon. Tamanho P com 90g.\r\nSe Adicionar R$3,00 Leva o Tamanho G Com 160g.",
      "codigo_barras_1": "136",
      "preco_varejo": "15.00",
      "preco_promocao": "13.00",
      "promocao_inicio": "2025-01-02",
      "promocao_fim": "2025-12-03",
      "estoque_atual": -1,
      "destaque": null,
      "somente_mesa": 1,
      "empresas_id": 111,
      "ordem": 7,
      "imagens": [
        {
          "id": 36126,
          "url": "\/uploads\/adm\/empresas\/111\/produtos\/9056_4522-600x600.jpg",
          "name": "9056_4522-600x600",
          "full_name": "600w",
          "extension": "jpg",
          "file_mimetype": "image\/jpg",
          "rel_table": "produtos",
          "rel_id": 9056,
          "created_at": "2025-01-02T05:38:22.000000Z",
          "updated_at": "2025-01-02T05:38:22.000000Z",
          "deleted_at": null
        }
      ]
    },
    {
      "id": 9057,
      "descricao": "Tit\u00e3 Mega Churras",
      "detalhes": "P\u00e3o Brioche,Blend Bovino 135g, Bacon Crocante, 2x Cheddar Premium, Molho Rocket, Lingui\u00e7a de Churrasco, Ovo Frito e Cebola Roxa.",
      "codigo_barras_1": null,
      "preco_varejo": "36.00",
      "preco_promocao": "28.80",
      "promocao_inicio": "2025-02-14",
      "promocao_fim": "2025-02-14",
      "estoque_atual": -1,
      "destaque": null,
      "somente_mesa": null,
      "empresas_id": 111,
      "ordem": 2,
      "imagens": [
        {
          "id": 36138,
          "url": "\/uploads\/adm\/empresas\/111\/produtos\/9057_9610-600x600.jpg",
          "name": "9057_9610-600x600",
          "full_name": "600w",
          "extension": "jpg",
          "file_mimetype": "image\/jpg",
          "rel_table": "produtos",
          "rel_id": 9057,
          "created_at": "2025-01-02T06:31:44.000000Z",
          "updated_at": "2025-01-02T06:31:44.000000Z",
          "deleted_at": null
        }
      ]
    },
    {
      "id": 9058,
      "descricao": "Vega Picles",
      "detalhes": "P\u00e3o De Brioche, Blend Bovino 135g, Queijo Cheddar Premium, Picles Fatiado, Cream Cheese e Molho Rocket.",
      "codigo_barras_1": null,
      "preco_varejo": "25.00",
      "preco_promocao": "20.00",
      "promocao_inicio": "2025-02-14",
      "promocao_fim": "2025-02-14",
      "estoque_atual": -1,
      "destaque": null,
      "somente_mesa": null,
      "empresas_id": 111,
      "ordem": 2,
      "imagens": [
        {
          "id": 36134,
          "url": "\/uploads\/adm\/empresas\/111\/produtos\/9058_7330-600x600.jpg",
          "name": "9058_7330-600x600",
          "full_name": "600w",
          "extension": "jpg",
          "file_mimetype": "image\/jpg",
          "rel_table": "produtos",
          "rel_id": 9058,
          "created_at": "2025-01-02T06:14:01.000000Z",
          "updated_at": "2025-01-02T06:14:01.000000Z",
          "deleted_at": null
        }
      ]
    },
    {
      "id": 9059,
      "descricao": "COMBO Vega Picles",
      "detalhes": "P\u00e3o De Brioche, Blend Bovino 135g, Queijo Cheddar Premium, Picles Fatiado, Cream Cheese e Molho Rocket  + Refri Lata 350ml + Batata-Frita.",
      "codigo_barras_1": null,
      "preco_varejo": "35.00",
      "preco_promocao": "0.00",
      "promocao_inicio": null,
      "promocao_fim": null,
      "estoque_atual": -1,
      "destaque": null,
      "somente_mesa": 1,
      "empresas_id": 111,
      "ordem": 4,
      "imagens": []
    },
    {
      "id": 9061,
      "descricao": "COMBO Urano Nacho",
      "detalhes": "P\u00e3o Rocket, Blend Angus 135g, Queijo Cheddar Premium, Doritos, Cream Cheese, Molho Rocket Burger, Alface, Tomate e Cebola Roxa + Refri Lata 350 + Batata-Frita.",
      "codigo_barras_1": null,
      "preco_varejo": "35.00",
      "preco_promocao": "0.00",
      "promocao_inicio": "2023-11-10",
      "promocao_fim": "2025-01-01",
      "estoque_atual": -1,
      "destaque": null,
      "somente_mesa": 1,
      "empresas_id": 111,
      "ordem": 4,
      "imagens": []
    },
    {
      "id": 7527,
      "descricao": "Picol\u00e9 Moranguito",
      "detalhes": "Picol\u00e9 Moranguito Paletitas.",
      "codigo_barras_1": null,
      "preco_varejo": "7.00",
      "preco_promocao": "0.00",
      "promocao_inicio": null,
      "promocao_fim": null,
      "estoque_atual": -1,
      "destaque": null,
      "somente_mesa": 1,
      "empresas_id": 111,
      "ordem": 8,
      "imagens": [
        {
          "id": 34961,
          "url": "\/uploads\/adm\/empresas\/111\/produtos\/7527_6828-600x600.jpg",
          "name": "7527_6828-600x600",
          "full_name": "600w",
          "extension": "jpg",
          "file_mimetype": "image\/jpg",
          "rel_table": "produtos",
          "rel_id": 7527,
          "created_at": "2023-12-29T23:24:44.000000Z",
          "updated_at": "2023-12-29T23:24:44.000000Z",
          "deleted_at": null
        }
      ]
    },
    {
      "id": 7532,
      "descricao": "Picol\u00e9 Real Gellato Bombom Italiano.",
      "detalhes": "Picol\u00e9 Real Gellato Bombom Italiano.",
      "codigo_barras_1": null,
      "preco_varejo": "14.90",
      "preco_promocao": "0.00",
      "promocao_inicio": null,
      "promocao_fim": null,
      "estoque_atual": -1,
      "destaque": null,
      "somente_mesa": 1,
      "empresas_id": 111,
      "ordem": 8,
      "imagens": []
    },
    {
      "id": 7312,
      "descricao": "Urano Nacho",
      "detalhes": "P\u00e3o Brioche, Blend Bovino 135g, Queijo Cheddar Premium, Doritos, Cream Cheese e Molho Rocket.",
      "codigo_barras_1": null,
      "preco_varejo": "25.00",
      "preco_promocao": "20.00",
      "promocao_inicio": "2025-02-14",
      "promocao_fim": "2025-02-14",
      "estoque_atual": -1,
      "destaque": null,
      "somente_mesa": null,
      "empresas_id": 111,
      "ordem": 2,
      "imagens": [
        {
          "id": 36130,
          "url": "\/uploads\/adm\/empresas\/111\/produtos\/7312_5938-600x600.jpg",
          "name": "7312_5938-600x600",
          "full_name": "600w",
          "extension": "jpg",
          "file_mimetype": "image\/jpg",
          "rel_table": "produtos",
          "rel_id": 7312,
          "created_at": "2025-01-02T05:57:33.000000Z",
          "updated_at": "2025-01-02T05:57:33.000000Z",
          "deleted_at": null
        }
      ]
    }
  ],
  "first_page_url": "https:\/\/ibox.delivery\/api\/v1\/empresa\/produtos?page=1",
  "from": 1,
  "last_page": 3,
  "last_page_url": "https:\/\/ibox.delivery\/api\/v1\/empresa\/produtos?page=3",
  "links": [
    {
      "url": null,
      "label": "&laquo; Anterior",
      "active": false
    },
    {
      "url": "https:\/\/ibox.delivery\/api\/v1\/empresa\/produtos?page=1",
      "label": "1",
      "active": true
    },
    {
      "url": "https:\/\/ibox.delivery\/api\/v1\/empresa\/produtos?page=2",
      "label": "2",
      "active": false
    },
    {
      "url": "https:\/\/ibox.delivery\/api\/v1\/empresa\/produtos?page=3",
      "label": "3",
      "active": false
    },
    {
      "url": "https:\/\/ibox.delivery\/api\/v1\/empresa\/produtos?page=2",
      "label": "Pr\u00f3ximo &raquo;",
      "active": false
    }
  ],
  "next_page_url": "https:\/\/ibox.delivery\/api\/v1\/empresa\/produtos?page=2",
  "path": "https:\/\/ibox.delivery\/api\/v1\/empresa\/produtos",
  "per_page": 24,
  "prev_page_url": null,
  "to": 24,
  "total": 53
}